^C:\USERS\SHREYUS\DESKTOP\MAIN PROJECT\GAMETEST\STDAFX.CPP
/c /Zi /nologo /W3 /WX- /diagnostics:column /sdl /O2 /Oi /GL /D _CRT_SECURE_NO_WARNINGS /D NDEBUG /D _CONSOLE /D _UNICODE /D UNICODE /Gm- /EHsc /MD /GS /Gy /fp:precise /Zc:wchar_t /Zc:forScope /Zc:inline /Yc"stdafx.h" /Fp"X64\RELEASE\GAMETEST.PCH" /Fo"X64\RELEASE\\" /Fd"X64\RELEASE\VC142.PDB" /Gd /TP /FC C:\USERS\SHREYUS\DESKTOP\MAIN PROJECT\GAMETEST\STDAFX.CPP
^C:\USERS\SHREYUS\DESKTOP\MAIN PROJECT\GAMETEST\APP\APP.CPP
/c /Zi /nologo /W3 /WX- /diagnostics:column /sdl /O2 /Oi /GL /D _CRT_SECURE_NO_WARNINGS /D NDEBUG /D _CONSOLE /D _UNICODE /D UNICODE /Gm- /EHsc /MD /GS /Gy /fp:precise /Zc:wchar_t /Zc:forScope /Zc:inline /Yu"stdafx.h" /Fp"X64\RELEASE\GAMETEST.PCH" /Fo"X64\RELEASE\\" /Fd"X64\RELEASE\VC142.PDB" /Gd /TP /FC C:\USERS\SHREYUS\DESKTOP\MAIN PROJECT\GAMETEST\APP\APP.CPP
^C:\USERS\SHREYUS\DESKTOP\MAIN PROJECT\GAMETEST\APP\MAIN.CPP
/c /Zi /nologo /W3 /WX- /diagnostics:column /sdl /O2 /Oi /GL /D _CRT_SECURE_NO_WARNINGS /D NDEBUG /D _CONSOLE /D _UNICODE /D UNICODE /Gm- /EHsc /MD /GS /Gy /fp:precise /Zc:wchar_t /Zc:forScope /Zc:inline /Yu"stdafx.h" /Fp"X64\RELEASE\GAMETEST.PCH" /Fo"X64\RELEASE\\" /Fd"X64\RELEASE\VC142.PDB" /Gd /TP /FC C:\USERS\SHREYUS\DESKTOP\MAIN PROJECT\GAMETEST\APP\MAIN.CPP
^C:\USERS\SHREYUS\DESKTOP\MAIN PROJECT\GAMETEST\APP\SIMPLECONTROLLER.CPP
/c /Zi /nologo /W3 /WX- /diagnostics:column /sdl /O2 /Oi /GL /D _CRT_SECURE_NO_WARNINGS /D NDEBUG /D _CONSOLE /D _UNICODE /D UNICODE /Gm- /EHsc /MD /GS /Gy /fp:precise /Zc:wchar_t /Zc:forScope /Zc:inline /Yu"stdafx.h" /Fp"X64\RELEASE\GAMETEST.PCH" /Fo"X64\RELEASE\\" /Fd"X64\RELEASE\VC142.PDB" /Gd /TP /FC C:\USERS\SHREYUS\DESKTOP\MAIN PROJECT\GAMETEST\APP\SIMPLECONTROLLER.CPP
^C:\USERS\SHREYUS\DESKTOP\MAIN PROJECT\GAMETEST\APP\SIMPLESOUND.CPP
/c /Zi /nologo /W3 /WX- /diagnostics:column /sdl /O2 /Oi /GL /D _CRT_SECURE_NO_WARNINGS /D NDEBUG /D _CONSOLE /D _UNICODE /D UNICODE /Gm- /EHsc /MD /GS /Gy /fp:precise /Zc:wchar_t /Zc:forScope /Zc:inline /Yu"stdafx.h" /Fp"X64\RELEASE\GAMETEST.PCH" /Fo"X64\RELEASE\\" /Fd"X64\RELEASE\VC142.PDB" /Gd /TP /FC C:\USERS\SHREYUS\DESKTOP\MAIN PROJECT\GAMETEST\APP\SIMPLESOUND.CPP
^C:\USERS\SHREYUS\DESKTOP\MAIN PROJECT\GAMETEST\APP\SIMPLESPRITE.CPP
/c /Zi /nologo /W3 /WX- /diagnostics:column /sdl /O2 /Oi /GL /D _CRT_SECURE_NO_WARNINGS /D NDEBUG /D _CONSOLE /D _UNICODE /D UNICODE /Gm- /EHsc /MD /GS /Gy /fp:precise /Zc:wchar_t /Zc:forScope /Zc:inline /Yu"stdafx.h" /Fp"X64\RELEASE\GAMETEST.PCH" /Fo"X64\RELEASE\\" /Fd"X64\RELEASE\VC142.PDB" /Gd /TP /FC C:\USERS\SHREYUS\DESKTOP\MAIN PROJECT\GAMETEST\APP\SIMPLESPRITE.CPP
^C:\USERS\SHREYUS\DESKTOP\MAIN PROJECT\GAMETEST\APP\TEXTURELOADER.CPP
/c /Zi /nologo /W3 /WX- /diagnostics:column /sdl /O2 /Oi /GL /D _CRT_SECURE_NO_WARNINGS /D NDEBUG /D _CONSOLE /D _UNICODE /D UNICODE /Gm- /EHsc /MD /GS /Gy /fp:precise /Zc:wchar_t /Zc:forScope /Zc:inline /Yu"stdafx.h" /Fp"X64\RELEASE\GAMETEST.PCH" /Fo"X64\RELEASE\\" /Fd"X64\RELEASE\VC142.PDB" /Gd /TP /FC C:\USERS\SHREYUS\DESKTOP\MAIN PROJECT\GAMETEST\APP\TEXTURELOADER.CPP
^C:\USERS\SHREYUS\DESKTOP\MAIN PROJECT\GAMETEST\BASEENEMY.CPP
/c /Zi /nologo /W3 /WX- /diagnostics:column /sdl /O2 /Oi /GL /D _CRT_SECURE_NO_WARNINGS /D NDEBUG /D _CONSOLE /D _UNICODE /D UNICODE /Gm- /EHsc /MD /GS /Gy /fp:precise /Zc:wchar_t /Zc:forScope /Zc:inline /Yu"stdafx.h" /Fp"X64\RELEASE\GAMETEST.PCH" /Fo"X64\RELEASE\\" /Fd"X64\RELEASE\VC142.PDB" /Gd /TP /FC C:\USERS\SHREYUS\DESKTOP\MAIN PROJECT\GAMETEST\BASEENEMY.CPP
^C:\USERS\SHREYUS\DESKTOP\MAIN PROJECT\GAMETEST\BASETOWER.CPP
/c /Zi /nologo /W3 /WX- /diagnostics:column /sdl /O2 /Oi /GL /D _CRT_SECURE_NO_WARNINGS /D NDEBUG /D _CONSOLE /D _UNICODE /D UNICODE /Gm- /EHsc /MD /GS /Gy /fp:precise /Zc:wchar_t /Zc:forScope /Zc:inline /Yu"stdafx.h" /Fp"X64\RELEASE\GAMETEST.PCH" /Fo"X64\RELEASE\\" /Fd"X64\RELEASE\VC142.PDB" /Gd /TP /FC C:\USERS\SHREYUS\DESKTOP\MAIN PROJECT\GAMETEST\BASETOWER.CPP
^C:\USERS\SHREYUS\DESKTOP\MAIN PROJECT\GAMETEST\ENEMYSPAWNER.CPP
/c /Zi /nologo /W3 /WX- /diagnostics:column /sdl /O2 /Oi /GL /D _CRT_SECURE_NO_WARNINGS /D NDEBUG /D _CONSOLE /D _UNICODE /D UNICODE /Gm- /EHsc /MD /GS /Gy /fp:precise /Zc:wchar_t /Zc:forScope /Zc:inline /Yu"stdafx.h" /Fp"X64\RELEASE\GAMETEST.PCH" /Fo"X64\RELEASE\\" /Fd"X64\RELEASE\VC142.PDB" /Gd /TP /FC C:\USERS\SHREYUS\DESKTOP\MAIN PROJECT\GAMETEST\ENEMYSPAWNER.CPP
^C:\USERS\SHREYUS\DESKTOP\MAIN PROJECT\GAMETEST\SIMPLEENEMY.CPP
/c /Zi /nologo /W3 /WX- /diagnostics:column /sdl /O2 /Oi /GL /D _CRT_SECURE_NO_WARNINGS /D NDEBUG /D _CONSOLE /D _UNICODE /D UNICODE /Gm- /EHsc /MD /GS /Gy /fp:precise /Zc:wchar_t /Zc:forScope /Zc:inline /Yu"stdafx.h" /Fp"X64\RELEASE\GAMETEST.PCH" /Fo"X64\RELEASE\\" /Fd"X64\RELEASE\VC142.PDB" /Gd /TP /FC C:\USERS\SHREYUS\DESKTOP\MAIN PROJECT\GAMETEST\SIMPLEENEMY.CPP
^C:\USERS\SHREYUS\DESKTOP\MAIN PROJECT\GAMETEST\SMITETOWER.CPP
/c /Zi /nologo /W3 /WX- /diagnostics:column /sdl /O2 /Oi /GL /D _CRT_SECURE_NO_WARNINGS /D NDEBUG /D _CONSOLE /D _UNICODE /D UNICODE /Gm- /EHsc /MD /GS /Gy /fp:precise /Zc:wchar_t /Zc:forScope /Zc:inline /Yu"stdafx.h" /Fp"X64\RELEASE\GAMETEST.PCH" /Fo"X64\RELEASE\\" /Fd"X64\RELEASE\VC142.PDB" /Gd /TP /FC C:\USERS\SHREYUS\DESKTOP\MAIN PROJECT\GAMETEST\SMITETOWER.CPP
^C:\USERS\SHREYUS\DESKTOP\MAIN PROJECT\GAMETEST\TOWERMANAGER.CPP
/c /Zi /nologo /W3 /WX- /diagnostics:column /sdl /O2 /Oi /GL /D _CRT_SECURE_NO_WARNINGS /D NDEBUG /D _CONSOLE /D _UNICODE /D UNICODE /Gm- /EHsc /MD /GS /Gy /fp:precise /Zc:wchar_t /Zc:forScope /Zc:inline /Yu"stdafx.h" /Fp"X64\RELEASE\GAMETEST.PCH" /Fo"X64\RELEASE\\" /Fd"X64\RELEASE\VC142.PDB" /Gd /TP /FC C:\USERS\SHREYUS\DESKTOP\MAIN PROJECT\GAMETEST\TOWERMANAGER.CPP
^C:\USERS\SHREYUS\DESKTOP\MAIN PROJECT\GAMETEST\TOWERPLACEMENT.CPP
/c /Zi /nologo /W3 /WX- /diagnostics:column /sdl /O2 /Oi /GL /D _CRT_SECURE_NO_WARNINGS /D NDEBUG /D _CONSOLE /D _UNICODE /D UNICODE /Gm- /EHsc /MD /GS /Gy /fp:precise /Zc:wchar_t /Zc:forScope /Zc:inline /Yu"stdafx.h" /Fp"X64\RELEASE\GAMETEST.PCH" /Fo"X64\RELEASE\\" /Fd"X64\RELEASE\VC142.PDB" /Gd /TP /FC C:\USERS\SHREYUS\DESKTOP\MAIN PROJECT\GAMETEST\TOWERPLACEMENT.CPP
^C:\USERS\SHREYUS\DESKTOP\MAIN PROJECT\GAMETEST\TOWERDEFENSE.CPP
/c /Zi /nologo /W3 /WX- /diagnostics:column /sdl /O2 /Oi /GL /D _CRT_SECURE_NO_WARNINGS /D NDEBUG /D _CONSOLE /D _UNICODE /D UNICODE /Gm- /EHsc /MD /GS /Gy /fp:precise /Zc:wchar_t /Zc:forScope /Zc:inline /Yu"stdafx.h" /Fp"X64\RELEASE\GAMETEST.PCH" /Fo"X64\RELEASE\\" /Fd"X64\RELEASE\VC142.PDB" /Gd /TP /FC C:\USERS\SHREYUS\DESKTOP\MAIN PROJECT\GAMETEST\TOWERDEFENSE.CPP
^C:\USERS\SHREYUS\DESKTOP\MAIN PROJECT\GAMETEST\ZOMBIEENEMY.CPP
/c /Zi /nologo /W3 /WX- /diagnostics:column /sdl /O2 /Oi /GL /D _CRT_SECURE_NO_WARNINGS /D NDEBUG /D _CONSOLE /D _UNICODE /D UNICODE /Gm- /EHsc /MD /GS /Gy /fp:precise /Zc:wchar_t /Zc:forScope /Zc:inline /Yu"stdafx.h" /Fp"X64\RELEASE\GAMETEST.PCH" /Fo"X64\RELEASE\\" /Fd"X64\RELEASE\VC142.PDB" /Gd /TP /FC C:\USERS\SHREYUS\DESKTOP\MAIN PROJECT\GAMETEST\ZOMBIEENEMY.CPP
^C:\USERS\SHREYUS\DESKTOP\MAIN PROJECT\GAMETEST\INPUTCONTROLLER.CPP
/c /Zi /nologo /W3 /WX- /diagnostics:column /sdl /O2 /Oi /GL /D _CRT_SECURE_NO_WARNINGS /D NDEBUG /D _CONSOLE /D _UNICODE /D UNICODE /Gm- /EHsc /MD /GS /Gy /fp:precise /Zc:wchar_t /Zc:forScope /Zc:inline /Yu"stdafx.h" /Fp"X64\RELEASE\GAMETEST.PCH" /Fo"X64\RELEASE\\" /Fd"X64\RELEASE\VC142.PDB" /Gd /TP /FC C:\USERS\SHREYUS\DESKTOP\MAIN PROJECT\GAMETEST\INPUTCONTROLLER.CPP
^C:\USERS\SHREYUS\DESKTOP\MAIN PROJECT\GAMETEST\SHOCKTOWER.CPP
/c /Zi /nologo /W3 /WX- /diagnostics:column /sdl /O2 /Oi /GL /D _CRT_SECURE_NO_WARNINGS /D NDEBUG /D _CONSOLE /D _UNICODE /D UNICODE /Gm- /EHsc /MD /GS /Gy /fp:precise /Zc:wchar_t /Zc:forScope /Zc:inline /Yu"stdafx.h" /Fp"X64\RELEASE\GAMETEST.PCH" /Fo"X64\RELEASE\\" /Fd"X64\RELEASE\VC142.PDB" /Gd /TP /FC C:\USERS\SHREYUS\DESKTOP\MAIN PROJECT\GAMETEST\SHOCKTOWER.CPP
^C:\USERS\SHREYUS\DESKTOP\MAIN PROJECT\GAMETEST\SCOREMANAGER.CPP
/c /Zi /nologo /W3 /WX- /diagnostics:column /sdl /O2 /Oi /GL /D _CRT_SECURE_NO_WARNINGS /D NDEBUG /D _CONSOLE /D _UNICODE /D UNICODE /Gm- /EHsc /MD /GS /Gy /fp:precise /Zc:wchar_t /Zc:forScope /Zc:inline /Yu"stdafx.h" /Fp"X64\RELEASE\GAMETEST.PCH" /Fo"X64\RELEASE\\" /Fd"X64\RELEASE\VC142.PDB" /Gd /TP /FC C:\USERS\SHREYUS\DESKTOP\MAIN PROJECT\GAMETEST\SCOREMANAGER.CPP
^C:\USERS\SHREYUS\DESKTOP\MAIN PROJECT\GAMETEST\ENEMYMANAGER.CPP
/c /Zi /nologo /W3 /WX- /diagnostics:column /sdl /O2 /Oi /GL /D _CRT_SECURE_NO_WARNINGS /D NDEBUG /D _CONSOLE /D _UNICODE /D UNICODE /Gm- /EHsc /MD /GS /Gy /fp:precise /Zc:wchar_t /Zc:forScope /Zc:inline /Yu"stdafx.h" /Fp"X64\RELEASE\GAMETEST.PCH" /Fo"X64\RELEASE\\" /Fd"X64\RELEASE\VC142.PDB" /Gd /TP /FC C:\USERS\SHREYUS\DESKTOP\MAIN PROJECT\GAMETEST\ENEMYMANAGER.CPP
